^C:\USERS\79198\SOURCE\REPOS\HOMEWORK11\DEBUG\HOMEWORK11.OBJ
C:\USERS\79198\SOURCE\REPOS\HOMEWORK11\DEBUG\HOMEWORK11.EXE
C:\USERS\79198\SOURCE\REPOS\HOMEWORK11\DEBUG\HOMEWORK11.ILK
C:\USERS\79198\SOURCE\REPOS\HOMEWORK11\DEBUG\HOMEWORK11.PDB
